Isin	SectyCD	Statusflag
FR0010645200	WAR	 
FR0010781021	WAR	 
FR0010891796	WAR	 
KYG7091M1179	WAR	 
XS0290764728	WAR	 
BE0006462601	WAR	 
BE0006463617	WAR	 
BE0006604087	WAR	 
FR0010585513	RDS	 
NL0000852879	PRF	I
FR0010251744	ETF	 
BE0157285488	EQS	I
FR0004151314	EQS	I
FR0000060386	EQS	I
FR0005328747	EQS	I
BE0165448631	EQS	I
FR0000121543	EQS	I
NL0006005662	EQS	 
NL0006294043	EQS	 
PTAXA0AM0007	EQS	 
PTBME0AM0000	EQS	 
PTBUQ0AP0004	EQS	 
PTCAI0AE0004	EQS	I
PTESD0AM0003	EQS	 
PTFPR0AM0006	EQS	I
PTSMC0AP0005	EQS	 
PTSMG0AE0009	EQS	 
PTSOP0AE0006	EQS	 
PTTCC0AM0007	EQS	I
PTTIR0AE0002	EQS	I
PTTLE0AM0004	EQS	 
NL0000289320	EQS	I
NL0000290641	EQS	I
NL0000333755	EQS	I
NL0000335669	EQS	I
NL0000335743	EQS	I
NL0000341709	EQS	I
GG00B1VYV826	EQS	I
IL0010830474	EQS	I
NL0000355477	EQS	I
NL0000359354	EQS	I
NL0000359552	EQS	I
NL0000381911	EQS	I
NL0000387017	EQS	I
NL0000388809	EQS	I
NL0000395937	EQS	I
NL0000440667	EQS	I
NL0000375814	EQS	I
NL0000441442	EQS	I
FR0010612176	EQS	I
GB00B64FX815	EQS	 
LU0140205948	EQS	I
NL0000009645	EQS	A
NL0000233187	EQS	I
NL0000233617	EQS	I
BE0003241404	EQS	I
BE0003279784	EQS	I
BE0003359610	EQS	I
BE0003432375	EQS	I
BE0003558666	EQS	I
BE0004020435	EQS	I
BE0003673846	EQS	 
BE0003679900	EQS	I
PTHEL0AM0009	EQS	I
PTMCO0AE0007	EQS	I
PTMNL0AM0000	EQS	 
PTMOC0AE0007	EQS	 
PTPEN0AP0005	EQS	I
NL0000852861	EQS	I
US0506871021	EQS	I
US9153012045	EQS	 
VGG3243H1064	EQS	 
USD33488AA17	BND	 
US81413PAG00	BND	 
US869049AC07	BND	 
US869049AG11	BND	 
PTRBTAOM0005	BND	 
XS0503539826	BND	 
XS0197031007	BND	 
XS0197053746	BND	 
XS0208732569	BND	 
XS0268138327	BND	A
XS0273895549	BND	 
XS0511251778	BND	 
XS0087977657	BND	 
XS0099472994	BND	 
XS0105742778	BND	 
XS0124243451	BND	 
XS0128089413	BND	 
XS0138691620	BND	 
XS0138720668	BND	 
XS0151648242	BND	 
XS0161405468	BND	 
XS0163772790	BND	I
XS0312737819	BND	 
XS0384913009	BND	 
XS0407451490	BND	 
XS0414192459	BND	 
XS0428450356	BND	 
XS0428951213	BND	 
XS0429750283	BND	 
XS0436862592	BND	 
USU04474AA75	BND	 
XS0509075973	BND	 
XS0517997804	BND	 
FR0010897983	BND	I
FR0010719732	BND	 
FR0010614727	BND	 
FR0010669614	BND	 
FR0010787119	BND	 
FR0010794867	BND	 
FR0010849901	BND	 
FR0010690156	BND	 
FR0010697631	BND	 
FR0010726372	BND	 
FR0010732685	BND	 
PTEDPZOM0003	BND	 
FR0010912907	BND	 
FR0010915074	BND	 
AE000A1ANQQ7	BND	 
CA33885NAA87	BND	 
FR0010206326	BND	I
FR0010318576	BND	 
FR0010410126	BND	 
FR0010461806	BND	 
FR0010440511	BND	 
FR0010490391	BND	 
FR0010500132	BND	 
FR0010500157	BND	 
FR0010500371	NULL	NULL
FR0010511600	NULL	NULL
FR0010515981	NULL	NULL
FR0010521765	NULL	NULL
FR0010546929	NULL	NULL
FR0010548461	NULL	NULL
FR0010549386	NULL	NULL
FR0010551705	NULL	NULL
FR0010554303	NULL	NULL
FR0010556159	NULL	NULL
FR0010585497	NULL	NULL
FR0010490458	NULL	NULL
FR0010453803	NULL	NULL
FR0010455824	NULL	NULL
FR0010474205	NULL	NULL
FR0010479923	NULL	NULL
FR0010479931	NULL	NULL
FR0010482042	NULL	NULL
FR0010482901	NULL	NULL
FR0010434688	NULL	NULL
FR0010434969	NULL	NULL
FR0010435529	NULL	NULL
FR0010437350	NULL	NULL
FR0004160638	NULL	NULL
FR0004253706	NULL	NULL
BE0163305544	NULL	NULL
FR0010259317	NULL	NULL
FR0010260000	NULL	NULL
FR0010261719	NULL	NULL
FR0010263574	NULL	NULL
FR0010270959	NULL	NULL
FR0010270967	NULL	NULL
FR0010286021	NULL	NULL
FR0010286740	NULL	NULL
FR0010288423	NULL	NULL
FR0010298596	NULL	NULL
FR0010306142	NULL	NULL
FR0010308759	NULL	NULL
FR0010315077	NULL	NULL
FR0010321802	NULL	NULL
FR0010321810	NULL	NULL
FR0010321828	NULL	NULL
FR0010321885	NULL	NULL
FR0010322438	NULL	NULL
FR0010337667	NULL	NULL
FR0010341222	NULL	NULL
FR0010348144	NULL	NULL
FR0010348201	NULL	NULL
FR0010348276	NULL	NULL
FR0010362897	NULL	NULL
FR0010365288	NULL	NULL
FR0010369439	NULL	NULL
FR0010370478	NULL	NULL
FR0010379537	NULL	NULL
FR0010380725	NULL	NULL
FR0010383448	NULL	NULL
FR0010384859	NULL	NULL
FR0010399782	NULL	NULL
FR0010209916	NULL	NULL
FR0010212795	NULL	NULL
FR0010213272	NULL	NULL
FR0010216804	NULL	NULL
FR0010219808	NULL	NULL
FR0010225102	NULL	NULL
FR0010234849	NULL	NULL
FR0010251108	NULL	NULL
FR0010251611	NULL	NULL
FR0000060626	NULL	NULL
FR0000066565	NULL	NULL
FR0000095192	NULL	NULL
FR0000095861	NULL	NULL
FR0000096166	NULL	NULL
FR0000098683	NULL	NULL
FR0000099566	NULL	NULL
FR0000120198	NULL	NULL
FR0005387404	NULL	NULL
FR0006007654	NULL	NULL
FR0006460887	NULL	NULL
FR0007001664	NULL	NULL
FR0007009808	NULL	NULL
FR0007012968	NULL	NULL
FR0007014295	NULL	NULL
FR0007019930	NULL	NULL
FR0007020003	NULL	NULL
FR0007022033	NULL	NULL
FR0007028063	NULL	NULL
FR0007030283	NULL	NULL
FR0007038120	NULL	NULL
FR0007043187	NULL	NULL
FR0007044680	NULL	NULL
FR0007045737	NULL	NULL
FR0007048673	NULL	NULL
FR0007049093	NULL	NULL
FR0007051925	NULL	NULL
FR0007057336	NULL	NULL
FR0007062567	NULL	NULL
FR0007065743	NULL	NULL
FR0007075825	NULL	NULL
FR0007076047	NULL	NULL
FR0007076724	NULL	NULL
FR0007076930	NULL	NULL
FR0007079355	NULL	NULL
FR0007350004	NULL	NULL
FR0007372693	NULL	NULL
FR0007373469	NULL	NULL
FR0007374145	NULL	NULL
FR0007437603	NULL	NULL
FR0007447891	NULL	NULL
FR0007450002	NULL	NULL
FR0007456165	NULL	NULL
FR0007457890	NULL	NULL
FR0007477146	NULL	NULL
FR0007479712	NULL	NULL
FR0007479944	NULL	NULL
FR0007480280	NULL	NULL
FR0007480843	NULL	NULL
FR0007486634	NULL	NULL
FR0007491022	NULL	NULL
FR0007494869	NULL	NULL
FR0007496047	NULL	NULL
FR0007496724	NULL	NULL
FR0007497854	NULL	NULL
FR0007583471	NULL	NULL
FR0010001206	NULL	NULL
FR0010007542	NULL	NULL
FR0010011171	NULL	NULL
FR0010013912	NULL	NULL
FR0010015016	NULL	NULL
FR0010016477	NULL	NULL
FR0010017731	NULL	NULL
FR0010027623	NULL	NULL
FR0010028902	NULL	NULL
FR0010028910	NULL	NULL
FR0010028928	NULL	NULL
FR0010032573	NULL	NULL
FR0010039495	NULL	NULL
FR0010043216	NULL	NULL
FR0010056804	NULL	NULL
FR0010057059	NULL	NULL
FR0010057075	NULL	NULL
FR0010072025	NULL	NULL
FR0010076430	NULL	NULL
FR0010076547	NULL	NULL
FR0010077172	NULL	NULL
FR0010077321	NULL	NULL
FR0010077412	NULL	NULL
FR0010077461	NULL	NULL
FR0010077859	NULL	NULL
FR0010080895	NULL	NULL
FR0010083634	NULL	NULL
FR0010086520	NULL	NULL
FR0010089649	NULL	NULL
FR0010093872	NULL	NULL
FR0010101022	NULL	NULL
FR0010104901	NULL	NULL
FR0010107706	NULL	NULL
FR0010109157	NULL	NULL
FR0010112615	NULL	NULL
FR0010113233	NULL	NULL
FR0010116343	NULL	NULL
FR0010116541	NULL	NULL
FR0010117523	NULL	NULL
FR0010121137	NULL	NULL
FR0010128587	NULL	NULL
FR0010135871	NULL	NULL
FR0010137075	NULL	NULL
FR0010144618	NULL	NULL
FR0010144626	NULL	NULL
FR0010144675	NULL	NULL
FR0010147603	NULL	NULL
FR0010150474	NULL	NULL
FR0010156216	NULL	NULL
FR0010156604	NULL	NULL
FR0010158220	NULL	NULL
FR0010170936	NULL	NULL
FR0010173484	NULL	NULL
FR0010174144	NULL	NULL
FR0010177998	NULL	NULL
FR0010186726	NULL	NULL
FR0010187674	NULL	NULL
FR0010187898	NULL	NULL
FR0010188383	NULL	NULL
FR0010194902	NULL	NULL
FR0010201897	NULL	NULL
FR0010202051	NULL	NULL
FR0010202671	NULL	NULL
FR0010204040	NULL	NULL
FR0010204552	NULL	NULL
CD000A0JM7Z4	NULL	NULL
DE0006859648	NULL	NULL
DE0006874837	NULL	NULL
DE000DB8AKS7	NULL	NULL
DE000DBA0376	NULL	NULL
DK0060158913	NULL	NULL
ES0184633032	NULL	NULL
FR0000003196	NULL	NULL
FR0000003964	NULL	NULL
FR0000004012	NULL	NULL
FR0000017915	NULL	NULL
FR0000017931	NULL	NULL
FR0000017972	NULL	NULL
FR0000018079	NULL	NULL
FR0000018095	NULL	NULL
FR0000018277	NULL	NULL
FR0000018285	NULL	NULL
FR0000018376	NULL	NULL
FR0000018426	NULL	NULL
FR0000018459	NULL	NULL
FR0000018483	NULL	NULL
FR0000018590	NULL	NULL
FR0000018855	NULL	NULL
FR0000018954	NULL	NULL
FR0000018962	NULL	NULL
FR0000021644	NULL	NULL
FR0000023194	NULL	NULL
FR0000027153	NULL	NULL
FR0000029571	NULL	NULL
FR0000034092	NULL	NULL
FR0000038556	NULL	NULL
FR0000051278	NULL	NULL
FR0000052599	NULL	NULL
FR0000054033	NULL	NULL
FR0000054363	NULL	NULL
BE0003020139	NULL	NULL
BE0058026205	NULL	NULL
BE0058027211	NULL	NULL
BE0058028227	NULL	NULL
BE0058029233	NULL	NULL
BE0058031254	NULL	NULL
BE0058033276	NULL	NULL
BE0058634461	NULL	NULL
BE0059885369	NULL	NULL
BE0093899038	NULL	NULL
BE0124921827	NULL	NULL
BE0125698838	NULL	NULL
BE0127752039	NULL	NULL
BE0146659926	NULL	NULL
BE0146662953	NULL	NULL
BE0151923217	NULL	NULL
BE0167838284	NULL	NULL
BE0169018448	NULL	NULL
BE0172505399	NULL	NULL
BE0172506405	NULL	NULL
BE0172846892	NULL	NULL
BE0173139917	NULL	NULL
BE0173446106	NULL	NULL
BE0175186049	NULL	NULL
BE0175505321	NULL	NULL
BE0175506337	NULL	NULL
BE0382856947	NULL	NULL
BE0917379506	NULL	NULL
BE0935005224	NULL	NULL
BE0941243520	NULL	NULL
BE0941244536	NULL	NULL
BE0943575564	NULL	NULL
BE0943577586	NULL	NULL
BE0943750373	NULL	NULL
BE0943879693	NULL	NULL
BE0944264663	NULL	NULL
BE0944917401	NULL	NULL
BE0948473070	NULL	NULL
BE0948572095	NULL	NULL
BE2129609712	NULL	NULL
BE5990146086	NULL	NULL
BSP3910Z1089	NULL	NULL
FR0000121824	NULL	NULL
FR0000130346	NULL	NULL
FR0000170060	NULL	NULL
FR0000170243	NULL	NULL
FR0000170292	NULL	NULL
FR0000170516	NULL	NULL
FR0000171852	NULL	NULL
FR0000172033	NULL	NULL
FR0000172165	NULL	NULL
FR0000172371	NULL	NULL
FR0000284150	NULL	NULL
FR0000285462	NULL	NULL
FR0000285629	NULL	NULL
FR0000286411	NULL	NULL
FR0000287955	NULL	NULL
FR0000287989	NULL	NULL
FR0000288557	NULL	NULL
FR0000288664	NULL	NULL
FR0000288946	NULL	NULL
FR0000289027	NULL	NULL
FR0000289118	NULL	NULL
FR0000291411	NULL	NULL
FR0000296014	NULL	NULL
FR0000296758	NULL	NULL
FR0000298192	NULL	NULL
FR0000298697	NULL	NULL
FR0000299240	NULL	NULL
FR0000299620	NULL	NULL
FR0000299711	NULL	NULL
FR0000401184	NULL	NULL
FR0000415929	NULL	NULL
FR0000423030	NULL	NULL
FR0000424319	NULL	NULL
FR0000428732	NULL	NULL
FR0000428740	NULL	NULL
FR0000432817	NULL	NULL
FR0000433815	NULL	NULL
FR0000435026	NULL	NULL
FR0000436065	NULL	NULL
FR0000437113	NULL	NULL
FR0000437162	NULL	NULL
FR0000438236	NULL	NULL
FR0000438699	NULL	NULL
FR0000443079	NULL	NULL
FR0000443947	NULL	NULL
FR0000444192	NULL	NULL
FR0000445777	NULL	NULL
FR0000447328	NULL	NULL
FR0000447823	NULL	NULL
FR0000448466	NULL	NULL
FR0000449712	NULL	NULL
FR0000449779	NULL	NULL
FR0000945503	NULL	NULL
FR0000945719	NULL	NULL
FR0000959991	NULL	NULL
FR0000961120	NULL	NULL
FR0000962904	NULL	NULL
FR0000971293	NULL	NULL
FR0000972390	NULL	NULL
FR0000972614	NULL	NULL
FR0000972945	NULL	NULL
FR0000974149	NULL	NULL
FR0000974297	NULL	NULL
FR0000974412	NULL	NULL
FR0000975674	NULL	NULL
FR0000975773	NULL	NULL
FR0000978082	NULL	NULL
FR0000978371	NULL	NULL
FR0000979130	NULL	NULL
FR0000979155	NULL	NULL
FR0000979866	NULL	NULL
FR0000980120	NULL	NULL
FR0000982902	NULL	NULL
FR0000983280	NULL	NULL
FR0000984379	NULL	NULL
FR0000985046	NULL	NULL
FR0000985061	NULL	NULL
FR0000985079	NULL	NULL
FR0000985152	NULL	NULL
FR0000985178	NULL	NULL
FR0000985558	NULL	NULL
FR0000987372	NULL	NULL
FR0000989410	NULL	NULL
FR0000989501	NULL	NULL
FR0000989949	NULL	NULL
FR0000989956	NULL	NULL
FR0000990665	NULL	NULL
FR0000990756	NULL	NULL
FR0000992992	NULL	NULL
FR0000993156	NULL	NULL
FR0004071355	NULL	NULL
FR0117381410	NULL	NULL
FR0117571317	NULL	NULL
FR0117733123	NULL	NULL
FR0117733248	NULL	NULL
FR0117815995	NULL	NULL
FR0117816068	NULL	NULL
FR0117816241	NULL	NULL
FR0117923054	NULL	NULL
FR0117981839	NULL	NULL
FR0117983710	NULL	NULL
FR0118025784	NULL	NULL
FR0118032483	NULL	NULL
FR0118032863	NULL	NULL
FR0118033408	NULL	NULL
FR0118062381	NULL	NULL
FR0118062613	NULL	NULL
FR0118074097	NULL	NULL
FR0118091521	NULL	NULL
FR0118091539	NULL	NULL
FR0118095035	NULL	NULL
FR0118095944	NULL	NULL
FR0118096959	NULL	NULL
FR0118097833	NULL	NULL
FR0118108002	NULL	NULL
FR0118115692	NULL	NULL
FR0118131012	NULL	NULL
FR0118136185	NULL	NULL
FR0118155896	NULL	NULL
FR0118156126	NULL	NULL
FR0118156357	NULL	NULL
FR0118156449	NULL	NULL
FR0118213596	NULL	NULL
FR0118264854	NULL	NULL
FR0118276783	NULL	NULL
FR0118278268	NULL	NULL
FR0118279837	NULL	NULL
FR0118281312	NULL	NULL
FR0118291055	NULL	NULL
FR0118291840	NULL	NULL
FR0118291857	NULL	NULL
FR0118291998	NULL	NULL
FR0118292327	NULL	NULL
FR0118292509	NULL	NULL
FR0118293663	NULL	NULL
FR0118293747	NULL	NULL
FR0118293879	NULL	NULL
FR0118294091	NULL	NULL
FR0118294372	NULL	NULL
FR0118294471	NULL	NULL
FR0118295171	NULL	NULL
FR0118295239	NULL	NULL
FR0118298779	NULL	NULL
FR0118300690	NULL	NULL
FR0118300716	NULL	NULL
FR0118301102	NULL	NULL
FR0118301177	NULL	NULL
FR0118302522	NULL	NULL
FR0118304858	NULL	NULL
FR0118335076	NULL	NULL
FR0118335415	NULL	NULL
FR0118341827	NULL	NULL
FR0118342080	NULL	NULL
FR0118342429	NULL	NULL
FR0118343583	NULL	NULL
FR0118374224	NULL	NULL
FR0118376575	NULL	NULL
FR0118376765	NULL	NULL
FR0118379173	NULL	NULL
FR0118380148	NULL	NULL
FR0118384264	NULL	NULL
FR0118385550	NULL	NULL
FR0118385691	NULL	NULL
FR0118385741	NULL	NULL
FR0118385824	NULL	NULL
FR0118386046	NULL	NULL
FR0118386269	NULL	NULL
FR0118386293	NULL	NULL
FR0118386301	NULL	NULL
FR0118386392	NULL	NULL
FR0118391368	NULL	NULL
FR0118391723	NULL	NULL
FR0118394263	NULL	NULL
FR0118402256	NULL	NULL
FR0118403205	NULL	NULL
FR0118403213	NULL	NULL
FR0118404930	NULL	NULL
FR0118405010	NULL	NULL
FR0118405127	NULL	NULL
FR0118406323	NULL	NULL
FR0118406430	NULL	NULL
FR0118406869	NULL	NULL
FR0118407024	NULL	NULL
FR0118407222	NULL	NULL
FR0118407297	NULL	NULL
FR0118407586	NULL	NULL
FR0118407776	NULL	NULL
FR0118409392	NULL	NULL
FR0118409889	NULL	NULL
FR0118409913	NULL	NULL
FR0118414665	NULL	NULL
FR0118414889	NULL	NULL
FR0118416413	NULL	NULL
FR0118416538	NULL	NULL
FR0118418641	NULL	NULL
FR0118418666	NULL	NULL
FR0118418971	NULL	NULL
FR0118420639	NULL	NULL
FR0118421108	NULL	NULL
FR0118422254	NULL	NULL
FR0118422403	NULL	NULL
FR0118425505	NULL	NULL
FR0118428327	NULL	NULL
FR0118429044	NULL	NULL
FR0118434937	NULL	NULL
FR0118436445	NULL	NULL
FR0118439696	NULL	NULL
FR0118440587	NULL	NULL
FR0118444365	NULL	NULL
FR0118447814	NULL	NULL
FR0118459876	NULL	NULL
FR0118459983	NULL	NULL
FR0118460106	NULL	NULL
FR0118460528	NULL	NULL
FR0118460734	NULL	NULL
FR0118461369	NULL	NULL
FR0118463159	NULL	NULL
FR0118463639	NULL	NULL
FR0118463803	NULL	NULL
FR0118464975	NULL	NULL
FR0118467275	NULL	NULL
FR0118467499	NULL	NULL
FR0118519349	NULL	NULL
FR0118522525	NULL	NULL
FR0118522723	NULL	NULL
FR0118523028	NULL	NULL
FR0118525296	NULL	NULL
FR0118528597	NULL	NULL
FR0118529330	NULL	NULL
FR0118531112	NULL	NULL
FR0118560020	NULL	NULL
FR0118560921	NULL	NULL
FR0118564071	NULL	NULL
FR0118570292	NULL	NULL
FR0118570888	NULL	NULL
FR0118570896	NULL	NULL
FR0118570987	NULL	NULL
FR0118574476	NULL	NULL
FR0118574864	NULL	NULL
FR0118578741	NULL	NULL
FR0118578931	NULL	NULL
GB0056948515	NULL	NULL
PTEPM0AP0007	NULL	NULL
PTESA0AM0009	NULL	NULL
PTGAU0AP0007	NULL	NULL
PTESS0AM0001	NULL	NULL
PTFFP0AP0008	NULL	NULL
PTFIR0AE0001	NULL	NULL
PTFMV0AP0002	NULL	NULL
PTFPC0AM0008	NULL	NULL
PTCAI0AM0004	NULL	NULL
PT0074141498	NULL	NULL
PTAQW0AE0005	NULL	NULL
PTYSAFLM0006	NULL	NULL
QS00021053C5	NULL	NULL
QS0010961058	NULL	NULL
QX0000022682	NULL	NULL
QX0000023862	NULL	NULL
TBA842000029	NULL	NULL
TBA842000057	NULL	NULL
TBA842000058	NULL	NULL
TBA842000076	NULL	NULL
TBA842000077	NULL	NULL
US0070431092	NULL	NULL
US0075792046	NULL	NULL
NL0000456655	NULL	NULL
NL0000377117	NULL	NULL
NL0000440741	NULL	NULL
NL0000440857	NULL	NULL
NL0000441228	NULL	NULL
NL0000423655	NULL	NULL
NL0000440543	NULL	NULL
NL0000360584	NULL	NULL
NL0000368298	NULL	NULL
NL0000358232	NULL	NULL
KYG063112067	NULL	NULL
NL0000342541	NULL	NULL
NL0000344430	NULL	NULL
NL0000344513	NULL	NULL
NL0000346450	NULL	NULL
NL0000340537	NULL	NULL
NL0000319606	NULL	NULL
NL0000331817	NULL	NULL
NL0000332351	NULL	NULL
NL0000333334	NULL	NULL
FR0010748392	NULL	NULL
FR0010762062	NULL	NULL
FR0010700351	NULL	NULL
FR0010700369	NULL	NULL
FR0010709303	NULL	NULL
FR0010712729	NULL	NULL
FR0010853887	NULL	NULL
FR0010863563	NULL	NULL
FR0010881623	NULL	NULL
FR0010807669	NULL	NULL
FR0010827675	NULL	NULL
FR0010827691	NULL	NULL
FR0010833269	NULL	NULL
FR0010684324	NULL	NULL
FR0010685966	NULL	NULL
FR0010689406	NULL	NULL
FR0010689414	NULL	NULL
FR0010689547	NULL	NULL
FR0010646679	NULL	NULL
FR0010647396	NULL	NULL
FR0010652743	NULL	NULL
FR0010656033	NULL	NULL
FR0010617423	NULL	NULL
FR0010621904	NULL	NULL
FR0010623215	NULL	NULL
FR0010627778	NULL	NULL
FR0010633818	NULL	NULL
FR0010588137	NULL	NULL
FR0010591982	NULL	NULL
FR0010594085	NULL	NULL
FR0010599050	NULL	NULL
FR0010600270	NULL	NULL
FR0010725499	NULL	NULL
FR0010903039	NULL	NULL
GB00B64FX922	NULL	NULL
GB00B64FXF89	NULL	NULL
GB3456789012	NULL	NULL
KYG9361G1010	NULL	NULL
LU0080608788	NULL	NULL
LU0083138064	NULL	NULL
LU0083949973	NULL	NULL
LU0087045547	NULL	NULL
LU0109395185	NULL	NULL
LU0110816229	NULL	NULL
LU0119196268	NULL	NULL
LU0136602124	NULL	NULL
NL0000285252	NULL	NULL
NL0000287928	NULL	NULL
NL0000182434	NULL	NULL
NL0000185098	NULL	NULL
NL0000213981	NULL	NULL
LU0180174582	NULL	NULL
LU0225245348	NULL	NULL
LU0225847150	NULL	NULL
LU0283576725	NULL	NULL
LU0298790287	NULL	NULL
LU0360646680	NULL	NULL
LU0363509208	NULL	NULL
LU0388016437	NULL	NULL
LU0408575248	NULL	NULL
LU0408576139	NULL	NULL
MC0009847948	NULL	NULL
MG0000062220	NULL	NULL
NL0000009553	NULL	NULL
NL0000009579	NULL	NULL
XS0518233035	NULL	NULL
XS0518496475	NULL	NULL
XS0519032261	NULL	NULL
ZR0009934629	NULL	NULL
BE0003126225	NULL	NULL
BE0003171676	NULL	NULL
BE0003250496	NULL	NULL
BE0003255545	NULL	NULL
BE0003256550	NULL	NULL
BE0003261600	NULL	NULL
XS0510656548	NULL	NULL
XS0510800252	NULL	NULL
BE0003641520	NULL	NULL
BE0003660710	NULL	NULL
BE0003504124	NULL	NULL
BE0003530384	NULL	NULL
BE0010198134	NULL	NULL
BE0010380013	NULL	NULL
BE0010602291	NULL	NULL
BE0010621481	NULL	NULL
BE0011537918	NULL	NULL
BE0013561783	NULL	NULL
BE0017380172	NULL	NULL
BE0017644874	NULL	NULL
BE0021031795	NULL	NULL
BE0022694930	NULL	NULL
BE0023128425	NULL	NULL
BE0040429772	NULL	NULL
BE0050050955	NULL	NULL
BE0057451271	NULL	NULL
BE0058023178	NULL	NULL
BE0058024184	NULL	NULL
BE0058025199	NULL	NULL
BE0003705192	NULL	NULL
BE0005014676	NULL	NULL
BE0005510780	NULL	NULL
BE0005524922	NULL	NULL
BE0005537080	NULL	NULL
BE0005545166	NULL	NULL
BE0005571428	NULL	NULL
BE0005574455	NULL	NULL
BE0005598694	NULL	NULL
BE0005630042	NULL	NULL
XS0484538649	NULL	NULL
XS0172983131	NULL	NULL
XS0172983727	NULL	NULL
XS0172994336	NULL	NULL
XS0172994419	NULL	NULL
XS0511424623	NULL	NULL
XS0514758282	NULL	NULL
XS0514815934	NULL	NULL
XS0514859981	NULL	NULL
XS0516630042	NULL	NULL
XS0516693552	NULL	NULL
XS0517076211	NULL	NULL
XS0517077458	NULL	NULL
XS0508921151	NULL	NULL
XS0307457100	NULL	NULL
PTPFUCIM0006	NULL	NULL
US19764J1043	NULL	NULL
US23338A1025	NULL	NULL
US2935618S88	NULL	NULL
US6200491065	NULL	NULL
PTMPT0AM0008	NULL	NULL
PTMUN0AE0001	NULL	NULL
PTOPC0AP0007	NULL	NULL
PTORB0AE0008	NULL	NULL
PTHIP0AE0001	NULL	NULL
PTIBS0AE0008	NULL	NULL
PTICX0AM0006	NULL	NULL
PTINF0AP0007	NULL	NULL
US89389NAH61	NULL	NULL
USG2111V1064	NULL	NULL
USG33528AA12	NULL	NULL
XF0000238752	NULL	NULL
XF0000240592	NULL	NULL
XF0000252670	NULL	NULL
XF0000544720	NULL	NULL
XF0000NS94E6	NULL	NULL
XF0000NS94F3	NULL	NULL
XF0000NSK182	NULL	NULL
XF0000NSQ403	NULL	NULL
XF1813180000	NULL	NULL
XF1903290000	NULL	NULL
