00000B000686
00000B001673
00000B002446
00000B006110
00000B045664
00000B053066
00000B074178
00000B074181
00000B074182
00000B138365
00000B154385
00000B154473
00000B154475
00000B154476
00000B154477
00000B155757
00000B160867
00000B161624
00000B162951
00000B166963
00000B174255
00000B184041
00000B184042
00000B184379
00000B184546
00000B184820
00000B184861
00000B186790
00000B186792
00000B189000
00000B189306
00000B189307
00000B189308
00000B189715
00000B189818
00000B189819
00000B192263
00000B193783
00000B193784
00000B193785
00000B193787
00000B193788
00000B193789
00000B193790
00000B193792
00000B193793
00000B193794
00000B193795
00000B194815
00000B196654
00000B196694
00000B196695
00000B198636
00000B199183
007514816...
AE000A1ANQQ7
BE0003020139
BE0003126225
BE0003171676
BE0003241404
BE0003250496
BE0003255545
BE0003256550
BE0003261600
BE0003279784
BE0003359610
BE0003432375
BE0003504124
BE0003530384
BE0003558666
BE0003641520
BE0003660710
BE0003673846
BE0003679900
BE0003705192
BE0004020435
BE0005014676
BE0005510780
BE0005524922
BE0005537080
BE0005545166
BE0005571428
BE0005574455
BE0005598694
BE0005630042
BE0006462601
BE0006463617
BE0006604087
BE0010198134
BE0010380013
BE0010602291
BE0010621481
BE0011537918
BE0013561783
BE0017380172
BE0017644874
BE0021031795
BE0022694930
BE0023128425
BE0040429772
BE0050050955
BE0057451271
BE0058023178
BE0058024184
BE0058025199
BE0058026205
BE0058027211
BE0058028227
BE0058029233
BE0058031254
BE0058033276
BE0058634461
BE0059885369
BE0093899038
BE0124921827
BE0125698838
BE0127752039
BE0146659926
BE0146662953
BE0151923217
BE0157285488
BE0163305544
BE0165448631
BE0167838284
BE0169018448
BE0172505399
BE0172506405
BE0172846892
BE0173139917
BE0173446106
BE0175186049
BE0175505321
BE0175506337
BE0382856947
BE0917379506
BE0935005224
BE0941243520
BE0941244536
BE0943575564
BE0943577586
BE0943750373
BE0943879693
BE0944264663
BE0944917401
BE0948473070
BE0948572095
BE2129609712
BE5990146086
BSP3910Z1089
CA33885NAA87
CD000A0JM7Z4
DE0006859648
DE0006874837
DE000DB8AKS7
DE000DBA0376
DK0060158913
ES0184633032
FR0000003196
FR0000003964
FR0000004012
FR0000017915
FR0000017931
FR0000017972
FR0000018079
FR0000018095
FR0000018277
FR0000018285
FR0000018376
FR0000018426
FR0000018459
FR0000018483
FR0000018590
FR0000018855
FR0000018954
FR0000018962
FR0000021644
FR0000023194
FR0000027153
FR0000029571
FR0000034092
FR0000038556
FR0000051278
FR0000052599
FR0000054033
FR0000054363
FR0000060386
FR0000060626
FR0000066565
FR0000095192
FR0000095861
FR0000096166
FR0000098683
FR0000099566
FR0000120198
FR0000121543
FR0000121824
FR0000130346
FR0000170060
FR0000170243
FR0000170292
FR0000170516
FR0000171852
FR0000172033
FR0000172165
FR0000172371
FR0000284150
FR0000285462
FR0000285629
FR0000286411
FR0000287955
FR0000287989
FR0000288557
FR0000288664
FR0000288946
FR0000289027
FR0000289118
FR0000291411
FR0000296014
FR0000296758
FR0000298192
FR0000298697
FR0000299240
FR0000299620
FR0000299711
FR0000401184
FR0000415929
FR0000423030
FR0000424319
FR0000428732
FR0000428740
FR0000432817
FR0000433815
FR0000435026
FR0000436065
FR0000437113
FR0000437162
FR0000438236
FR0000438699
FR0000443079
FR0000443947
FR0000444192
FR0000445777
FR0000447328
FR0000447823
FR0000448466
FR0000449712
FR0000449779
FR0000945503
FR0000945719
FR0000959991
FR0000961120
FR0000962904
FR0000971293
FR0000972390
FR0000972614
FR0000972945
FR0000974149
FR0000974297
FR0000974412
FR0000975674
FR0000975773
FR0000978082
FR0000978371
FR0000979130
FR0000979155
FR0000979866
FR0000980120
FR0000982902
FR0000983280
FR0000984379
FR0000985046
FR0000985061
FR0000985079
FR0000985152
FR0000985178
FR0000985558
FR0000987372
FR0000989410
FR0000989501
FR0000989949
FR0000989956
FR0000990665
FR0000990756
FR0000992992
FR0000993156
FR0004071355
FR0004151314
FR0004160638
FR0004253706
FR0005328747
FR0005387404
FR0006007654
FR0006460887
FR0007001664
FR0007009808
FR0007012968
FR0007014295
FR0007019930
FR0007020003
FR0007022033
FR0007028063
FR0007030283
FR0007038120
FR0007043187
FR0007044680
FR0007045737
FR0007048673
FR0007049093
FR0007051925
FR0007057336
FR0007062567
FR0007065743
FR0007075825
FR0007076047
FR0007076724
FR0007076930
FR0007079355
FR0007350004
FR0007372693
FR0007373469
FR0007374145
FR0007437603
FR0007447891
FR0007450002
FR0007456165
FR0007457890
FR0007477146
FR0007479712
FR0007479944
FR0007480280
FR0007480843
FR0007486634
FR0007491022
FR0007494869
FR0007496047
FR0007496724
FR0007497854
FR0007583471
FR0010001206
FR0010007542
FR0010011171
FR0010013912
FR0010015016
FR0010016477
FR0010017731
FR0010027623
FR0010028902
FR0010028910
FR0010028928
FR0010032573
FR0010039495
FR0010043216
FR0010056804
FR0010057059
FR0010057075
FR0010072025
FR0010076430
FR0010076547
FR0010077172
FR0010077321
FR0010077412
FR0010077461
FR0010077859
FR0010080895
FR0010083634
FR0010086520
FR0010089649
FR0010093872
FR0010101022
FR0010104901
FR0010107706
FR0010109157
FR0010112615
FR0010113233
FR0010116343
FR0010116541
FR0010117523
FR0010121137
FR0010128587
FR0010135871
FR0010137075
FR0010144618
FR0010144626
FR0010144675
FR0010147603
FR0010150474
FR0010156216
FR0010156604
FR0010158220
FR0010170936
FR0010173484
FR0010174144
FR0010177998
FR0010186726
FR0010187674
FR0010187898
FR0010188383
FR0010194902
FR0010201897
FR0010202051
FR0010202671
FR0010204040
FR0010204552
FR0010206326
FR0010209916
FR0010212795
FR0010213272
FR0010216804
FR0010219808
FR0010225102
FR0010234849
FR0010251108
FR0010251611
FR0010251744
FR0010259317
FR0010260000
FR0010261719
FR0010263574
FR0010270959
FR0010270967
FR0010286021
FR0010286740
FR0010288423
FR0010298596
FR0010306142
FR0010308759
FR0010315077
FR0010318576
FR0010321802
FR0010321810
FR0010321828
FR0010321885
FR0010322438
FR0010337667
FR0010341222
FR0010348144
FR0010348201
FR0010348276
FR0010362897
FR0010365288
FR0010369439
FR0010370478
FR0010379537
FR0010380725
FR0010383448
FR0010384859
FR0010399782
FR0010410126
FR0010434688
FR0010434969
FR0010435529
FR0010437350
FR0010440511
FR0010453803
FR0010455824
FR0010461806
FR0010474205
FR0010479923
FR0010479931
FR0010482042
FR0010482901
FR0010490391
FR0010490458
FR0010500132
FR0010500157
FR0010500371
FR0010511600
FR0010515981
FR0010521765
FR0010546929
FR0010548461
FR0010549386
FR0010551705
FR0010554303
FR0010556159
FR0010585497
FR0010585513
FR0010588137
FR0010591982
FR0010594085
FR0010599050
FR0010600270
FR0010612176
FR0010614727
FR0010617423
FR0010621904
FR0010623215
FR0010627778
FR0010633818
FR0010645200
FR0010646679
FR0010647396
FR0010652743
FR0010656033
FR0010669614
FR0010684324
FR0010685966
FR0010689406
FR0010689414
FR0010689547
FR0010690156
FR0010697631
FR0010700351
FR0010700369
FR0010709303
FR0010712729
FR0010719732
FR0010725499
FR0010726372
FR0010732685
FR0010748392
FR0010762062
FR0010781021
FR0010787119
FR0010794867
FR0010807669
FR0010827675
FR0010827691
FR0010833269
FR0010849901
FR0010853887
FR0010863563
FR0010881623
FR0010891796
FR0010897983
FR0010903039
FR0010912907
FR0010915074
FR0117381410
FR0117571317
FR0117733123
FR0117733248
FR0117815995
FR0117816068
FR0117816241
FR0117923054
FR0117981839
FR0117983710
FR0118025784
FR0118032483
FR0118032863
FR0118033408
FR0118062381
FR0118062613
FR0118074097
FR0118091521
FR0118091539
FR0118095035
FR0118095944
FR0118096959
FR0118097833
FR0118108002
FR0118115692
FR0118131012
FR0118136185
FR0118155896
FR0118156126
FR0118156357
FR0118156449
FR0118213596
FR0118264854
FR0118276783
FR0118278268
FR0118279837
FR0118281312
FR0118291055
FR0118291840
FR0118291857
FR0118291998
FR0118292327
FR0118292509
FR0118293663
FR0118293747
FR0118293879
FR0118294091
FR0118294372
FR0118294471
FR0118295171
FR0118295239
FR0118298779
FR0118300690
FR0118300716
FR0118301102
FR0118301177
FR0118302522
FR0118304858
FR0118335076
FR0118335415
FR0118341827
FR0118342080
FR0118342429
FR0118343583
FR0118374224
FR0118376575
FR0118376765
FR0118379173
FR0118380148
FR0118384264
FR0118385550
FR0118385691
FR0118385741
FR0118385824
FR0118386046
FR0118386269
FR0118386293
FR0118386301
FR0118386392
FR0118391368
FR0118391723
FR0118394263
FR0118402256
FR0118403205
FR0118403213
FR0118404930
FR0118405010
FR0118405127
FR0118406323
FR0118406430
FR0118406869
FR0118407024
FR0118407222
FR0118407297
FR0118407586
FR0118407776
FR0118409392
FR0118409889
FR0118409913
FR0118414665
FR0118414889
FR0118416413
FR0118416538
FR0118418641
FR0118418666
FR0118418971
FR0118420639
FR0118421108
FR0118422254
FR0118422403
FR0118425505
FR0118428327
FR0118429044
FR0118434937
FR0118436445
FR0118439696
FR0118440587
FR0118444365
FR0118447814
FR0118459876
FR0118459983
FR0118460106
FR0118460528
FR0118460734
FR0118461369
FR0118463159
FR0118463639
FR0118463803
FR0118464975
FR0118467275
FR0118467499
FR0118519349
FR0118522525
FR0118522723
FR0118523028
FR0118525296
FR0118528597
FR0118529330
FR0118531112
FR0118560020
FR0118560921
FR0118564071
FR0118570292
FR0118570888
FR0118570896
FR0118570987
FR0118574476
FR0118574864
FR0118578741
FR0118578931
GB0056948515
GB00B64FX815
GB00B64FX922
GB00B64FXF89
GG00B1VYV826
IL0010830474
KYG063112067
KYG7091M1179
KYG9361G1010
LU0080608788
LU0083138064
LU0083949973
LU0087045547
LU0109395185
LU0110816229
LU0119196268
LU0136602124
LU0140205948
LU0180174582
LU0225245348
LU0225847150
LU0283576725
LU0298790287
LU0360646680
LU0363509208
LU0388016437
LU0408575248
LU0408576139
MC0009847948
MG0000062220
NL0000009553
NL0000009579
NL0000009645
NL0000182434
NL0000185098
NL0000213981
NL0000233187
NL0000233617
NL0000285252
NL0000287928
NL0000289320
NL0000290641
NL0000319606
NL0000331817
NL0000332351
NL0000333334
NL0000333755
NL0000335669
NL0000335743
NL0000340537
NL0000341709
NL0000342541
NL0000344430
NL0000344513
NL0000346450
NL0000355477
NL0000358232
NL0000359354
NL0000359552
NL0000360584
NL0000368298
NL0000375814
NL0000377117
NL0000381911
NL0000387017
NL0000388809
NL0000395937
NL0000423655
NL0000440543
NL0000440667
NL0000440741
NL0000440857
NL0000441228
NL0000441442
NL0000456655
NL0000852861
NL0000852879
NL0006005662
NL0006294043
PT0074141498
PTAQW0AE0005
PTAXA0AM0007
PTBME0AM0000
PTBUQ0AP0004
PTCAI0AE0004
PTCAI0AM0004
PTEDPZOM0003
PTEPM0AP0007
PTESA0AM0009
PTESD0AM0003
PTESS0AM0001
PTFFP0AP0008
PTFIR0AE0001
PTFMV0AP0002
PTFPC0AM0008
PTFPR0AM0006
PTGAU0AP0007
PTHEL0AM0009
PTHIP0AE0001
PTIBS0AE0008
PTICX0AM0006
PTINF0AP0007
PTMCO0AE0007
PTMNL0AM0000
PTMOC0AE0007
PTMPT0AM0008
PTMUN0AE0001
PTOPC0AP0007
PTORB0AE0008
PTPEN0AP0005
PTPFUCIM0006
PTRBTAOM0005
PTSMC0AP0005
PTSMG0AE0009
PTSOP0AE0006
PTTCC0AM0007
PTTIR0AE0002
PTTLE0AM0004
PTYSAFLM0006
QS00021053C5
QS0010961058
QX0000022682
QX0000023862
TBA842000029
TBA842000057
TBA842000058
TBA842000076
TBA842000077
US0070431092
US0075792046
US0506871021
US19764J1043
US23338A1025
US2935618S88
US6200491065
US81413PAG00
US869049AC07
US869049AG11
US89389NAH61
US9153012045
USD33488AA17
USG2111V1064
USG33528AA12
USU04474AA75
VGG3243H1064
XF0000238752
XF0000240592
XF0000252670
XF0000544720
XF0000NS94E6
XF0000NS94F3
XF0000NSK182
XF0000NSQ403
XF1813180000
XF1903290000
XS0087977657
XS0099472994
XS0105742778
XS0124243451
XS0128089413
XS0138691620
XS0138720668
XS0151648242
XS0161405468
XS0163772790
XS0172983131
XS0172983727
XS0172994336
XS0172994419
XS0197031007
XS0197053746
XS0208732569
XS0268138327
XS0273895549
XS0290764728
XS0307457100
XS0312737819
XS0384913009
XS0407451490
XS0414192459
XS0428450356
XS0428951213
XS0429750283
XS0436862592
XS0484538649
XS0503539826
XS0508921151
XS0509075973
XS0510656548
XS0510800252
XS0511251778
XS0511424623
XS0514758282
XS0514815934
XS0514859981
XS0516630042
XS0516693552
XS0517076211
XS0517077458
XS0517997804
XS0518233035
XS0518496475
XS0519032261
ZR0009934629
