--SEMETABLE=client.dbo.seme_mwace
--FileName=edi_YYYYMMDD
--EXRI_RENO_RTS_EQ564_YYYYMMDD
--FileNameNotes=15022_EQ568.TXT
--FileExtension=.txt
--filenamealt=select max(feeddate) as maxdate from wca.dbo.tbl_Opslog where seq = 3
--archive=off
--ArchivePath=n:\15022\2012_citibank_i\
--FIELDHEADERS=off
--FileTidy=N
--TFBNUMBER=1
--INCREMENTAL=OFF
--NOTESLIMIT=0

--# 1
use wca
select distinct
maintab.Changed,
'select case when len(cast(RTSNotes as varchar(255)))>40 then RTSNotes else rtrim(char(32)) end As Notes FROM RTS WHERE RDID = '+ cast(maintab.EventID as char(16)) as ChkNotes,
'{1:F01EDIXXXXXXISO0300000054}{2:O5641825151030EDIXXXXXXISO03000000541510301825N}{4:' as ISOHDR,
':16R:GENL',
'118'+EXCHGID+cast(Seqnum as char(1)) as CAref1,
EventID as CAREF2,
SecID as CAREF3,
'' as SRID,
CASE WHEN maintab.Actflag = 'I'
     THEN ':23G:NEWM'
     WHEN maintab.Actflag = 'U'
     THEN ':23G:REPL'
     WHEN maintab.Actflag = 'D'
     THEN ':23G:CANC'
     WHEN maintab.Actflag = 'C'
     THEN ':23G:WITH'
     ELSE ''
     END AS MessageStatus,
':22F::CAEV//EXRI' as CAEV,
':22F::CAMV//CHOS' as CHOICE,
':98C::PREP//'+CONVERT ( varchar , Changed,112) + replace(convert ( varchar, Changed, 08),':','') as prep,
':25D::PROC//COMP' as PROCCOMP, 
'' as PSRID,
/* ':16R:LINK',
'160' as CAref4,
':16S:LINK', */
':16S:GENL',
':16R:USECU',
':97C::SAFE//GENR' as MT568only,
':35B:' + mainTFB1 as TFB,
substring(Issuername,1,35) as TIDYTEXT,
substring(Securitydesc,1,35) as TIDYTEXT,
CASE WHEN Sedol <> '' and substring(mainTFB1,1,4) = 'ISIN' THEN '/GB/' + Sedol ELSE '' END,
CASE WHEN Localcode <>''
     THEN '/TS/' + replace(replace(replace(Localcode,'%','PCT'),'&','and'),'_',' ')
     ELSE ''
     END,
':16R:FIA',
CASE WHEN MCD='' THEN ':94B::PLIS//SECM' WHEN PrimaryExchgCD=ExchgCD THEN ':94B::PLIS//PRIM/'+MCD WHEN PrimaryExchgCD<>ExchgCD THEN ':94B::PLIS//SECM/'+MCD ELSE ':94B::PLIS//EXCH/' + MCD END,
CASE WHEN len(cfi)=6 THEN ':12C::CLAS//'+cfi ELSE '' END,
':16S:FIA',
':16R:ACCTINFO',
':97A::SAFE//NONREF' as MT564only,
':16S:ACCTINFO',
':16S:USECU',
':16R:CADETL',
':16S:CADETL',
':16R:CAOPTN',
':13A::CAON//001',
':22F::CAOP//EXER',
CASE WHEN maintab.CurenCD<>'' AND maintab.CurenCD IS NOT NULL
     THEN ':11A::OPTN//' + maintab.CurenCD ELSE ''
     END,
':17B::DFLT//N',
CASE WHEN EndSubscription<>''
     THEN ':98A::MKDT//'+CONVERT ( varchar , EndSubscription,112)
     ELSE ':98B::MKDT//UKWN'
     END,
CASE WHEN EndSubscription<>''
       AND StartSubscription<>''
       THEN ':69A::PWAL//'
          +CONVERT ( varchar , StartSubscription,112)+'/'
          +CONVERT ( varchar , EndSubscription,112)
     WHEN StartSubscription<>''
     THEN ':69C::PWAL//'
          +CONVERT ( varchar , StartSubscription,112)+'/UKWN'
     WHEN EndSubscription<>''
     THEN ':69E::PWAL//UKWN/'
          +CONVERT ( varchar , EndSubscription,112)
     ELSE ':69J::PWAL//UKWN'
     END,
':16R:SECMOVE',
':22H::CRDB//CRED',
CASE WHEN resTFB1<>'UKWN' and resTFB1<>''
     THEN ':35B:' + resTFB1
     ELSE ':35B:' + mainTFB2
     END,
':16R:FIA',
':94B::PLIS//SECM',
':16S:FIA',
CASE WHEN EndTrade<>'' 
       AND StartTrade<>'' 
     THEN ':69A::TRDP//'
          +CONVERT ( varchar , StartTrade,112) + '/'
          +CONVERT ( varchar , EndTrade,112)
     WHEN StartTrade<>'' 
     THEN ':69C::TRDP//'
          +CONVERT ( varchar , StartTrade,112) + '/UKWN'
     WHEN EndTrade<>'' 
     THEN ':69E::TRDP//UKWN/'
          +CONVERT ( varchar , EndTrade,112)
     ELSE ':69J::TRDP//UKWN'
     END,
CASE WHEN NewExerciseRatio <>'' AND OldExerciseRatio <>''
     THEN ':92D::NEWO//'+ltrim(cast(NewExerciseRatio as char (15)))+
                    '/'+ltrim(cast(OldExerciseRatio as char (15))) 
     WHEN RatioNew <>'' AND RatioOld <>'' and maintab.CntryCD='GB'
     THEN ':92D::NEWO//1,/1,'
     WHEN RatioNew <>'' AND RatioOld <>'' and maintab.CntryCD<>'GB'
     THEN ':92D::NEWO//'+ltrim(cast(RatioNew as char (15)))+
                    '/'+ltrim(cast(RatioOld as char (15))) 
     ELSE ':92K::NEWO//UKWN' 
     END as COMMASUB,
CASE WHEN StartTrade<>'' 
               AND StartTrade IS NOT NULL
     THEN ':98A::PAYD//'+CONVERT ( varchar , StartTrade,112)
     ELSE ':98B::PAYD//UKWN' 
     END,
':16S:SECMOVE',
':16R:CASHMOVE',
':22H::CRDB//DEBT',
CASE WHEN StartTrade<>'' AND StartTrade IS NOT NULL
     THEN ':98A::PAYD//'+CONVERT ( varchar , StartTrade,112)
     ELSE ':98B::PAYD//UKWN' 
     END,
CASE WHEN IssuePrice<>''
     THEN ':90B::PRPP//ACTU/'+maintab.CurenCD+ltrim(cast(IssuePrice as char(15)))
     ELSE ':90E::PRPP//UKWN'
     END as COMMASUB,
':16S:CASHMOVE',
':16S:CAOPTN',
':16R:CAOPTN',
':13A::CAON//002',
':22F::CAOP//LAPS',
':17B::DFLT//Y',
':16S:CAOPTN',
'' as MT564Notes, 
'-}$'
From wca2.dbo.t_EQ_EXRI_RENO_RTS as maintab
WHERE 
mainTFB1<>''
and opol<>'SHSC' and opol<>'XSSC'
and (ListStatus<>'D' or SCEXHActtime>changed-2)
and exchgid<>'' and exchgid is not null
order by caref2 desc, caref1, caref3
